digraph feedforward_1_3_1 {
        // There may not be a need for [uuid]
    // sX :: sensors | aY :: actuators | nZ or just Z :: neurons.
    s1 [uuid="\"s1\""] ;
    a1 [uuid="\"a1\""] ;
    1 [uuid=1, weights="[{\"s1\",[1]}]"] ;
    2 [uuid=2, weights="[{1,[1]}]"] ;
    3 [uuid=3, weights="[{1,[1]}]"] ;
    4 [uuid=4, weights="[{1,[1]}]"] ;
    5 [uuid=5, weights="[{2,[1]}, {3,[1]}, {4,[1]}]"] ;

    s1 -> 1 ;
    1 -> 2 -> 5 ;
    1 -> 3 -> 5 ;
    1 -> 4 -> 5 ;
    5 -> a1 ;
}
